filename,emotion,valence,arousal
01-02.mp4,2,5,4
03-02.mp4,3,5,5
01-03.mp4,1,3,5
04-02.mp4,4,5,5
01-01.mp4,1,3,4
02-02.mp4,3,6,5
01-04.mp4,1,4,5
05-02.mp4,6,5,5
01-06.mp4,3,5,5
07-02.mp4,7,5,5
01-05.mp4,1,5,4
06-02.mp4,6,3,4
