filename,emotion,valence,arousal
01-05.mp4,2,4,1
06-02.mp4,6,2,6
01-06.mp4,2,4,1
07-02.mp4,7,1,1
01-04.mp4,1,4,1
05-02.mp4,4,1,7
01-01.mp4,3,3,2
02-02.mp4,2,5,3
01-03.mp4,2,4,1
04-02.mp4,4,1,7
01-02.mp4,1,4,4
03-02.mp4,3,7,7
