filename,emotion,valence,arousal
01-03.mp4,6,3,2
04-03.mp4,4,1,3
01-04.mp4,1,4,1
05-03.mp4,7,2,3
01-02.mp4,1,4,1
03-03.mp4,3,7,5
01-05.mp4,6,3,2
06-03.mp4,6,1,6
01-01.mp4,1,3,1
02-03.mp4,3,7,3
01-06.mp4,1,5,1
07-03.mp4,7,2,6
