filename,intense_1,intense_1_dt,intense_2,intense_2_dt,intense_3,intense_3_dt,intense_4,intense_4_dt,intense_5,intense_5_dt,intense_6,intense_6_dt
01-01.mp4
02-01.mp4
01-02.mp4
03-01.mp4
01-06.mp4
07-01.mp4,3,2.384078999999474,3,10.510734899999534,3,17.374702599999637,3,24.75156799999968
01-03.mp4
04-01.mp4
01-05.mp4,1,6.492127699999855,1,22.940624099999695
06-01.mp4,1,15.015400900000259,1,65.18350980000014,3,77.27904820000003,3,79.67135899999994,3,126.33603029999995,1,149.59990600000037
01-04.mp4,3,4.583278699999937
05-01.mp4
