filename,intense_1,intense_1_dt,intense_2,intense_2_dt,intense_3,intense_3_dt,intense_4,intense_4_dt
01-03.mp4
04-03.mp4,3,55.29901789999985,2,85.80412350000006,1,89.92364410000027
01-04.mp4
05-03.mp4,1,250.55859790000022,2,253.6627609000002,3,300.33535980000033
01-02.mp4
03-03.mp4,2,242.6949797000002,2,301.44634750000023
01-05.mp4
06-03.mp4,1,82.30394139999999,1,103.31114840000009,3,105.42411399999992,1,137.05576150000024
01-01.mp4
02-03.mp4
01-06.mp4
07-03.mp4
