filename,emotion,valence,arousal
01-05.mp4,1,3,4
06-02.mp4,6,3,6
01-06.mp4,1,3,4
07-02.mp4,7,3,4
01-04.mp4,1,4,4
05-02.mp4,5,1,5
01-01.mp4,7,2,5
02-02.mp4,3,6,4
01-03.mp4,1,4,4
04-02.mp4,4,2,3
01-02.mp4,1,4,4
03-02.mp4,3,7,6
