filename,emotion,valence,arousal
01-01.mp4,2,6,5
02-01.mp4,1,3,2
01-02.mp4,2,5,6
03-01.mp4,3,7,6
01-06.mp4,1,3,6
07-01.mp4,3,7,7
01-03.mp4,2,4,5
04-01.mp4,4,2,6
01-05.mp4,3,5,3
06-01.mp4,6,1,7
01-04.mp4,1,4,3
05-01.mp4,5,2,6
