filename,emotion,valence,arousal
01-05.mp4,2,4,3
06-02.mp4,6,2,5
01-06.mp4,1,4,4
07-02.mp4,7,1,5
01-04.mp4,1,5,4
05-02.mp4,4,1,6
01-01.mp4,4,2,4
02-02.mp4,1,5,4
01-03.mp4,1,4,4
04-02.mp4,4,1,6
01-02.mp4,1,3,4
03-02.mp4,3,7,6
